320 Final Project: Kickstarter Data Analysis
…
Looks like Film and Video is the highest category for Kickstarter projects. What percent of all projects are Film and Video?

ks %>%
  
  filter(main_category == "Film & Video") 

## # A tibble: 63,585 x 16
##         ID name           category main_category currency deadline    goal
##      <int> <chr>          <chr>    <fct>         <chr>    <date>     <dbl>
##  1  1.00e9 Greeting From~ Narrati~ Film & Video  USD      2017-11-01 30000
##  2  1.00e9 Where is Hank? Narrati~ Film & Video  USD      2013-02-26 45000
##  3  1.00e9 Community Fil~ Film & ~ Film & Video  USD      2015-08-29 19500
##  4  1.00e8 STUDIO IN THE~ Documen~ Film & Video  USD      2014-08-10 65000
##  5  1.00e9 Permaculture ~ Webseri~ Film & Video  CAD      2014-12-14 17757
##  6  1.00e8 My Moon - Ani~ Animati~ Film & Video  USD      2017-05-03 50000
##  7  1.00e9 Squatch Watch~ Webseri~ Film & Video  USD      2013-08-23 10000
##  8  1.00e9 Zen in Americ~ Documen~ Film & Video  USD      2013-10-21 10000
##  9  1.00e9 WE ARE ONE: S~ Documen~ Film & Video  USD      2013-10-01  2500
## 10  1.00e9 Star and the ~ Narrati~ Film & Video  USD      2013-02-23  8000
## # ... with 63,575 more rows, and 9 more variables: launched <date>,
## #   pledged <dbl>, state <chr>, backers <int>, country <chr>,
## #   usd_pledged <dbl>, usd_goal <dbl>, launch_year <dbl>,
## #   deadline_year <dbl>
…
Now lets see how successes compare across categories relative to one another. I will do this by standardizing success rates by category. This way, we can see if there really are projects that perform better than others on average. Heres a bit more on standardization in R: http://stats.seandolinar.com/calculating-z-scores-with-r/.

std <- ks

stdize <- std %>%
  group_by(main_category, launch_year) %>%
  summarize(cat_success = mean((sum(state == "successful")/length(main_category)))) 

stdize <- stdize%>%
  mutate(avg_success = (sum(std$state == "successful")/length(std$state))) %>%
  mutate(stdized_success = (cat_success-avg_success)/sd(cat_success))

stdize

## # A tibble: 149 x 5
## # Groups:   main_category [15]
##    main_category launch_year cat_success avg_success stdized_success
##    <fct>               <dbl>       <dbl>       <dbl>           <dbl>
##  1 Film & Video         2009       0.377       0.354          0.186 
##  2 Film & Video         2010       0.400       0.354          0.368 
##  3 Film & Video         2011       0.414       0.354          0.488 
##  4 Film & Video         2012       0.401       0.354          0.382 
##  5 Film & Video         2013       0.423       0.354          0.553 
##  6 Film & Video         2014       0.361       0.354          0.0622
##  7 Film & Video         2015       0.294       0.354         -0.477 
##  8 Film & Video         2016       0.346       0.354         -0.0664
##  9 Film & Video         2017       0.345       0.354         -0.0676
## 10 Film & Video         2018       0           0.354         -2.85  
## # ... with 139 more rows
…
It may also be interesting to see how people give money over time. Namely, does having a longer project imply success? Lets use a linear model to find out. First, we have to get some time differences between the project launch and deadline. Lets get an average success rate based on the number of days a project is live. Well do this by subtracting the launch date from the deadline column.

len_vs_succ <- ks

len_vs_succ <- len_vs_succ%>%
  mutate(proj_len = as.numeric(deadline-launched)) %>%
  group_by(proj_len) %>%
  summarize(succ_pct = (sum(state=="successful")/(length(state)-sum(state == "live")-sum(state == "undefined"))))

len_vs_succ <- len_vs_succ %>%
  filter(proj_len <= 70)

len_vs_succ

## # A tibble: 70 x 2
##    proj_len succ_pct
##       <dbl>    <dbl>
##  1     1.00    0.343
##  2     2.00    0.367
##  3     3.00    0.317
##  4     4.00    0.393
##  5     5.00    0.402
##  6     6.00    0.434
##  7     7.00    0.454
##  8     8.00    0.529
##  9     9.00    0.543
## 10    10.0     0.437
## # ... with 60 more rows
…
len_vs_succ

## # A tibble: 70 x 2
##    proj_len succ_pct
##       <dbl>    <dbl>
##  1     1.00    0.343
##  2     2.00    0.367
##  3     3.00    0.317
##  4     4.00    0.393
##  5     5.00    0.402
##  6     6.00    0.434
##  7     7.00    0.454
##  8     8.00    0.529
##  9     9.00    0.543
## 10    10.0     0.437
## # ... with 60 more rows
…
